# Blender v2.72 (sub 0) OBJ File: ''
# www.blender.org
v 1.000000 -1.000000 -1.000000
v 1.000000 -1.000000 1.000000
v -1.000000 -1.000000 1.000000
v -1.000000 -1.000000 -1.000000
v 1.000000 1.000000 -0.999999
v 0.999999 1.000000 1.000001
v -1.000000 1.000000 1.000000
v -1.000000 1.000000 -1.000000
v 1.000000 -1.000000 0.000000
v 0.000000 -1.000000 -1.000000
v 1.000000 0.000000 -1.000000
v 0.000000 -1.000000 1.000000
v 1.000000 0.000000 1.000000
v -1.000000 -1.000000 -0.000000
v -1.000000 0.000000 1.000000
v -1.000000 0.000000 -1.000000
v 1.000000 1.000000 0.000001
v 0.000000 1.000000 -1.000000
v -0.000001 1.000000 1.000000
v -1.000000 1.000000 -0.000000
v 0.000000 -1.000000 -0.000000
v -0.000000 1.000000 0.000000
v 1.000000 0.000000 0.000000
v -0.000000 0.000000 1.000000
v -1.000000 0.000000 -0.000000
v 0.000000 0.000000 -1.000000
v 1.000000 -1.000000 0.500000
v -0.500000 -1.000000 -1.000000
v 1.000000 0.500000 -1.000000
v -0.500000 -1.000000 1.000000
v 1.000000 0.500000 1.000000
v -1.000000 -1.000000 -0.500000
v -1.000000 0.500000 1.000000
v -1.000000 0.500000 -1.000000
v 1.000000 1.000000 0.500001
v -0.500000 1.000000 -1.000000
v -0.500000 1.000000 1.000000
v -1.000000 1.000000 -0.500000
v 1.000000 -1.000000 -0.500000
v 0.500000 -1.000000 -1.000000
v 1.000000 -0.500000 -1.000000
v 0.500000 -1.000000 1.000000
v 1.000000 -0.500000 1.000000
v -1.000000 -1.000000 0.500000
v -1.000000 -0.500000 1.000000
v -1.000000 -0.500000 -1.000000
v 1.000000 1.000000 -0.499999
v 0.500000 1.000000 -1.000000
v 0.499999 1.000000 1.000000
v -1.000000 1.000000 0.500000
v -0.500000 -1.000000 -0.000000
v 0.500000 -1.000000 -0.000000
v 0.000000 -1.000000 -0.500000
v 0.000000 -1.000000 0.500000
v -0.000000 1.000000 0.500000
v 0.000000 1.000000 -0.500000
v 0.500000 1.000000 0.000000
v -0.500000 1.000000 0.000000
v 1.000000 0.000000 0.500000
v 1.000000 0.000000 -0.500000
v 1.000000 -0.500000 0.000000
v 1.000000 0.500000 0.000000
v -0.500000 0.000000 1.000000
v 0.500000 0.000000 1.000000
v -0.000000 -0.500000 1.000000
v -0.000000 0.500000 1.000000
v -1.000000 0.000000 -0.500000
v -1.000000 0.000000 0.500000
v -1.000000 -0.500000 -0.000000
v -1.000000 0.500000 -0.000000
v -0.500000 0.000000 -1.000000
v 0.500000 0.000000 -1.000000
v 0.000000 0.500000 -1.000000
v 0.000000 -0.500000 -1.000000
v -0.500000 -1.000000 0.500000
v -0.500000 1.000000 0.500000
v 1.000000 0.500000 0.500000
v -0.500000 0.500000 1.000000
v -1.000000 0.500000 -0.500000
v -0.500000 -0.500000 -1.000000
v -0.500000 -1.000000 -0.500000
v 0.500000 -1.000000 -0.500000
v 0.500000 -1.000000 0.500000
v 0.500000 1.000000 0.500000
v 0.500000 1.000000 -0.500000
v -0.500000 1.000000 -0.500000
v 1.000000 -0.500000 0.500000
v 1.000000 -0.500000 -0.500000
v 1.000000 0.500000 -0.500000
v -0.500000 -0.500000 1.000000
v 0.500000 -0.500000 1.000000
v 0.500000 0.500000 1.000000
v -1.000000 -0.500000 -0.500000
v -1.000000 -0.500000 0.500000
v -1.000000 0.500000 0.500000
v -0.500000 0.500000 -1.000000
v 0.500000 0.500000 -1.000000
v 0.500000 -0.500000 -1.000000
v 1.000000 -1.000000 0.750000
v -0.750000 -1.000000 -1.000000
v 1.000000 0.750000 -1.000000
v -0.750000 -1.000000 1.000000
v 0.999999 0.750000 1.000000
v -1.000000 -1.000000 -0.750000
v -1.000000 0.750000 1.000000
v -1.000000 0.750000 -1.000000
v 1.000000 1.000000 0.750001
v -0.750000 1.000000 -1.000000
v -0.750000 1.000000 1.000000
v -1.000000 1.000000 -0.750000
v 1.000000 -1.000000 -0.250000
v 0.250000 -1.000000 -1.000000
v 1.000000 -0.250000 -1.000000
v 0.250000 -1.000000 1.000000
v 1.000000 -0.250000 1.000000
v -1.000000 -1.000000 0.250000
v -1.000000 -0.250000 1.000000
v -1.000000 -0.250000 -1.000000
v 1.000000 1.000000 -0.249999
v 0.250000 1.000000 -1.000000
v 0.249999 1.000000 1.000000
v -1.000000 1.000000 0.250000
v -0.750000 -1.000000 -0.000000
v 0.250000 -1.000000 -0.000000
v 0.000000 -1.000000 -0.750000
v 0.000000 -1.000000 0.250000
v -0.000000 1.000000 0.750000
v -0.000000 1.000000 -0.250000
v 0.750000 1.000000 0.000000
v -0.250000 1.000000 0.000000
v 1.000000 0.000000 0.750000
v 1.000000 0.000000 -0.250000
v 1.000000 -0.750000 0.000000
v 1.000000 0.250000 0.000000
v -0.750000 0.000000 1.000000
v 0.250000 0.000000 1.000000
v -0.000000 -0.750000 1.000000
v -0.000000 0.250000 1.000000
v -1.000000 0.000000 -0.750000
v -1.000000 0.000000 0.250000
v -1.000000 -0.750000 -0.000000
v -1.000000 0.250000 -0.000000
v -0.750000 0.000000 -1.000000
v 0.250000 0.000000 -1.000000
v 0.000000 0.750000 -1.000000
v 0.000000 -0.250000 -1.000000
v 1.000000 -1.000000 0.250000
v -0.250000 -1.000000 -1.000000
v 1.000000 0.250000 -1.000000
v -0.250000 -1.000000 1.000000
v 1.000000 0.250000 1.000000
v -1.000000 -1.000000 -0.250000
v -1.000000 0.250000 1.000000
v -1.000000 0.250000 -1.000000
v 1.000000 1.000000 0.250001
v -0.250000 1.000000 -1.000000
v -0.250001 1.000000 1.000000
v -1.000000 1.000000 -0.250000
v 1.000000 -1.000000 -0.750000
v 0.750000 -1.000000 -1.000000
v 1.000000 -0.750000 -1.000000
v 0.750000 -1.000000 1.000000
v 1.000000 -0.750000 1.000000
v -1.000000 -1.000000 0.750000
v -1.000000 -0.750000 1.000000
v -1.000000 -0.750000 -1.000000
v 1.000000 1.000000 -0.749999
v 0.750000 1.000000 -1.000000
v 0.749999 1.000000 1.000000
v -1.000000 1.000000 0.750000
v -0.250000 -1.000000 -0.000000
v 0.750000 -1.000000 0.000000
v 0.000000 -1.000000 -0.250000
v 0.000000 -1.000000 0.750000
v -0.000000 1.000000 0.250000
v 0.000000 1.000000 -0.750000
v 0.250000 1.000000 0.000000
v -0.750000 1.000000 -0.000000
v 1.000000 0.000000 0.250000
v 1.000000 0.000000 -0.750000
v 1.000000 -0.250000 0.000000
v 1.000000 0.750000 0.000000
v -0.250000 0.000000 1.000000
v 0.750000 0.000000 1.000000
v -0.000000 -0.250000 1.000000
v -0.000000 0.750000 1.000000
v -1.000000 0.000000 -0.250000
v -1.000000 0.000000 0.750000
v -1.000000 -0.250000 -0.000000
v -1.000000 0.750000 -0.000000
v -0.250000 0.000000 -1.000000
v 0.750000 0.000000 -1.000000
v 0.000000 0.250000 -1.000000
v 0.000000 -0.750000 -1.000000
v -0.750000 -1.000000 0.500000
v -0.250000 -1.000000 0.500000
v -0.500000 -1.000000 0.250000
v -0.500000 -1.000000 0.750000
v -0.500000 1.000000 0.750000
v -0.500000 1.000000 0.250000
v -0.250000 1.000000 0.500000
v -0.750000 1.000000 0.500000
v 1.000000 0.500000 0.750000
v 1.000000 0.500000 0.250000
v 1.000000 0.250000 0.500000
v 1.000000 0.750000 0.500000
v -0.750000 0.500000 1.000000
v -0.250000 0.500000 1.000000
v -0.500000 0.250000 1.000000
v -0.500000 0.750000 1.000000
v -1.000000 0.500000 -0.750000
v -1.000000 0.500000 -0.250000
v -1.000000 0.250000 -0.500000
v -1.000000 0.750000 -0.500000
v -0.750000 -0.500000 -1.000000
v -0.250000 -0.500000 -1.000000
v -0.500000 -0.250000 -1.000000
v -0.500000 -0.750000 -1.000000
v -0.750000 -1.000000 -0.500000
v -0.250000 -1.000000 -0.500000
v -0.500000 -1.000000 -0.750000
v -0.500000 -1.000000 -0.250000
v 0.250000 -1.000000 -0.500000
v 0.750000 -1.000000 -0.500000
v 0.500000 -1.000000 -0.750000
v 0.500000 -1.000000 -0.250000
v 0.250000 -1.000000 0.500000
v 0.750000 -1.000000 0.500000
v 0.500000 -1.000000 0.250000
v 0.500000 -1.000000 0.750000
v 0.500000 1.000000 0.750000
v 0.500000 1.000000 0.250000
v 0.750000 1.000000 0.500000
v 0.250000 1.000000 0.500000
v 0.500000 1.000000 -0.250000
v 0.500000 1.000000 -0.750000
v 0.750000 1.000000 -0.500000
v 0.250000 1.000000 -0.500000
v -0.500000 1.000000 -0.250000
v -0.500000 1.000000 -0.750000
v -0.250000 1.000000 -0.500000
v -0.750000 1.000000 -0.500000
v 1.000000 -0.500000 0.750000
v 1.000000 -0.500000 0.250000
v 1.000000 -0.750000 0.500000
v 1.000000 -0.250000 0.500000
v 1.000000 -0.500000 -0.250000
v 1.000000 -0.500000 -0.750000
v 1.000000 -0.750000 -0.500000
v 1.000000 -0.250000 -0.500000
v 1.000000 0.500000 -0.250000
v 1.000000 0.500000 -0.750000
v 1.000000 0.250000 -0.500000
v 1.000000 0.750000 -0.500000
v -0.750000 -0.500000 1.000000
v -0.250000 -0.500000 1.000000
v -0.500000 -0.750000 1.000000
v -0.500000 -0.250000 1.000000
v 0.250000 -0.500000 1.000000
v 0.750000 -0.500000 1.000000
v 0.500000 -0.750000 1.000000
v 0.500000 -0.250000 1.000000
v 0.250000 0.500000 1.000000
v 0.750000 0.500000 1.000000
v 0.500000 0.250000 1.000000
v 0.499999 0.750000 1.000000
v -1.000000 -0.500000 -0.750000
v -1.000000 -0.500000 -0.250000
v -1.000000 -0.750000 -0.500000
v -1.000000 -0.250000 -0.500000
v -1.000000 -0.500000 0.250000
v -1.000000 -0.500000 0.750000
v -1.000000 -0.750000 0.500000
v -1.000000 -0.250000 0.500000
v -1.000000 0.500000 0.250000
v -1.000000 0.500000 0.750000
v -1.000000 0.250000 0.500000
v -1.000000 0.750000 0.500000
v -0.750000 0.500000 -1.000000
v -0.250000 0.500000 -1.000000
v -0.500000 0.750000 -1.000000
v -0.500000 0.250000 -1.000000
v 0.250000 0.500000 -1.000000
v 0.750000 0.500000 -1.000000
v 0.500000 0.750000 -1.000000
v 0.500000 0.250000 -1.000000
v 0.250000 -0.500000 -1.000000
v 0.750000 -0.500000 -1.000000
v 0.500000 -0.250000 -1.000000
v 0.500000 -0.750000 -1.000000
v -0.750000 -1.000000 0.750000
v -0.750000 1.000000 0.750000
v 1.000000 0.750000 0.750000
v -0.750000 0.750000 1.000000
v -1.000000 0.750000 -0.750000
v -0.750000 -0.750000 -1.000000
v -0.750000 -1.000000 -0.250000
v 0.250000 -1.000000 -0.250000
v 0.250000 -1.000000 0.750000
v 0.250000 1.000000 0.750000
v 0.250000 1.000000 -0.250000
v -0.750000 1.000000 -0.250000
v 1.000000 -0.250000 0.750000
v 1.000000 -0.250000 -0.250000
v 1.000000 0.750000 -0.250000
v -0.750000 -0.250000 1.000000
v 0.250000 -0.250000 1.000000
v 0.249999 0.750000 1.000000
v -1.000000 -0.250000 -0.750000
v -1.000000 -0.250000 0.250000
v -1.000000 0.750000 0.250000
v -0.750000 0.250000 -1.000000
v 0.250000 0.250000 -1.000000
v 0.250000 -0.750000 -1.000000
v -0.750000 -1.000000 0.250000
v -0.250000 -1.000000 0.250000
v -0.250000 -1.000000 0.750000
v -0.250000 1.000000 0.750000
v -0.250000 1.000000 0.250000
v -0.750000 1.000000 0.250000
v 1.000000 0.250000 0.750000
v 1.000000 0.250000 0.250000
v 1.000000 0.750000 0.250000
v -0.750000 0.250000 1.000000
v -0.250000 0.250000 1.000000
v -0.250000 0.750000 1.000000
v -1.000000 0.250000 -0.750000
v -1.000000 0.250000 -0.250000
v -1.000000 0.750000 -0.250000
v -0.750000 -0.250000 -1.000000
v -0.250000 -0.250000 -1.000000
v -0.250000 -0.750000 -1.000000
v -0.750000 -1.000000 -0.750000
v -0.250000 -1.000000 -0.750000
v -0.250000 -1.000000 -0.250000
v 0.250000 -1.000000 -0.750000
v 0.750000 -1.000000 -0.750000
v 0.750000 -1.000000 -0.250000
v 0.250000 -1.000000 0.250000
v 0.750000 -1.000000 0.250000
v 0.750000 -1.000000 0.750000
v 0.750000 1.000000 0.750000
v 0.750000 1.000000 0.250000
v 0.250000 1.000000 0.250000
v 0.750000 1.000000 -0.250000
v 0.750000 1.000000 -0.750000
v 0.250000 1.000000 -0.750000
v -0.250000 1.000000 -0.250000
v -0.250000 1.000000 -0.750000
v -0.750000 1.000000 -0.750000
v 1.000000 -0.750000 0.750000
v 1.000000 -0.750000 0.250000
v 1.000000 -0.250000 0.250000
v 1.000000 -0.750000 -0.250000
v 1.000000 -0.750000 -0.750000
v 1.000000 -0.250000 -0.750000
v 1.000000 0.250000 -0.250000
v 1.000000 0.250000 -0.750000
v 1.000000 0.750000 -0.750000
v -0.750000 -0.750000 1.000000
v -0.250000 -0.750000 1.000000
v -0.250000 -0.250000 1.000000
v 0.250000 -0.750000 1.000000
v 0.750000 -0.750000 1.000000
v 0.750000 -0.250000 1.000000
v 0.250000 0.250000 1.000000
v 0.750000 0.250000 1.000000
v 0.749999 0.750000 1.000000
v -1.000000 -0.750000 -0.750000
v -1.000000 -0.750000 -0.250000
v -1.000000 -0.250000 -0.250000
v -1.000000 -0.750000 0.250000
v -1.000000 -0.750000 0.750000
v -1.000000 -0.250000 0.750000
v -1.000000 0.250000 0.250000
v -1.000000 0.250000 0.750000
v -1.000000 0.750000 0.750000
v -0.750000 0.750000 -1.000000
v -0.250000 0.750000 -1.000000
v -0.250000 0.250000 -1.000000
v 0.250000 0.750000 -1.000000
v 0.750000 0.750000 -1.000000
v 0.750000 0.250000 -1.000000
v 0.250000 -0.250000 -1.000000
v 0.750000 -0.250000 -1.000000
v 0.750000 -0.750000 -1.000000
vn 0.000000 -1.000000 0.000000
vn 0.000000 1.000000 0.000000
vn 1.000000 0.000000 0.000000
vn -0.000000 0.000000 1.000000
vn -1.000000 -0.000000 -0.000000
vn 0.000000 0.000000 -1.000000
s off
f 291//1 102//1 3//1
f 170//2 7//2 109//2
f 293//3 107//3 6//3
f 294//4 109//4 7//4
f 110//5 8//5 106//5
f 100//6 4//6 166//6
f 123//1 14//1 152//1
f 124//1 21//1 173//1
f 114//1 12//1 174//1
f 127//2 19//2 121//2
f 301//2 128//2 22//2
f 158//2 20//2 178//2
f 131//3 13//3 115//3
f 304//3 132//3 23//3
f 305//3 119//3 17//3
f 135//4 15//4 117//4
f 307//4 136//4 24//4
f 308//4 121//4 19//4
f 139//5 16//5 118//5
f 140//5 25//5 189//5
f 122//5 20//5 190//5
f 143//6 16//6 154//6
f 144//6 26//6 193//6
f 112//6 10//6 194//6
f 195//1 44//1 116//1
f 196//1 75//1 197//1
f 317//1 150//1 30//1
f 199//2 37//2 157//2
f 200//2 76//2 201//2
f 122//2 50//2 202//2
f 321//3 203//3 31//3
f 322//3 204//3 77//3
f 323//3 155//3 35//3
f 324//4 207//4 33//4
f 325//4 208//4 78//4
f 326//4 157//4 37//4
f 211//5 34//5 154//5
f 212//5 79//5 213//5
f 158//5 38//5 214//5
f 215//6 46//6 118//6
f 216//6 80//6 217//6
f 148//6 28//6 218//6
f 219//1 32//1 104//1
f 220//1 81//1 221//1
f 171//1 51//1 222//1
f 223//1 53//1 125//1
f 337//1 224//1 82//1
f 172//1 52//1 226//1
f 227//1 54//1 126//1
f 228//1 83//1 229//1
f 162//1 42//1 230//1
f 231//2 49//2 169//2
f 232//2 84//2 233//2
f 344//2 175//2 55//2
f 235//2 57//2 129//2
f 236//2 85//2 237//2
f 347//2 176//2 56//2
f 239//2 58//2 130//2
f 349//2 240//2 86//2
f 110//2 38//2 242//2
f 351//3 243//3 43//3
f 352//3 244//3 87//3
f 353//3 179//3 59//3
f 354//3 247//3 61//3
f 355//3 248//3 88//3
f 356//3 180//3 60//3
f 357//3 251//3 62//3
f 358//3 252//3 89//3
f 359//3 167//3 47//3
f 255//4 45//4 165//4
f 361//4 256//4 90//4
f 362//4 183//4 63//4
f 363//4 259//4 65//4
f 364//4 260//4 91//4
f 365//4 184//4 64//4
f 366//4 263//4 66//4
f 367//4 264//4 92//4
f 368//4 169//4 49//4
f 267//5 46//5 166//5
f 268//5 93//5 269//5
f 187//5 67//5 270//5
f 271//5 69//5 141//5
f 272//5 94//5 273//5
f 188//5 68//5 274//5
f 275//5 70//5 142//5
f 276//5 95//5 277//5
f 170//5 50//5 278//5
f 279//6 34//6 106//6
f 280//6 96//6 281//6
f 191//6 71//6 282//6
f 283//6 73//6 145//6
f 382//6 284//6 97//6
f 192//6 72//6 286//6
f 384//6 287//6 74//6
f 385//6 288//6 98//6
f 160//6 40//6 290//6
f 291//1 164//1 44//1
f 198//1 291//1 195//1
f 198//1 30//1 102//1
f 292//2 109//2 37//2
f 202//2 292//2 199//2
f 50//2 170//2 292//2
f 293//3 103//3 31//3
f 206//3 293//3 203//3
f 206//3 35//3 107//3
f 294//4 105//4 33//4
f 78//4 210//4 294//4
f 210//4 37//4 109//4
f 295//5 106//5 34//5
f 214//5 295//5 211//5
f 38//5 110//5 295//5
f 296//6 166//6 46//6
f 218//6 296//6 215//6
f 28//6 100//6 296//6
f 219//1 297//1 152//1
f 81//1 222//1 297//1
f 51//1 123//1 297//1
f 298//1 173//1 53//1
f 226//1 298//1 223//1
f 52//1 124//1 298//1
f 299//1 174//1 54//1
f 230//1 299//1 227//1
f 42//1 114//1 299//1
f 300//2 121//2 49//2
f 234//2 300//2 231//2
f 55//2 127//2 300//2
f 301//2 177//2 57//2
f 85//2 238//2 301//2
f 238//2 56//2 128//2
f 302//2 178//2 58//2
f 242//2 302//2 239//2
f 38//2 158//2 302//2
f 243//3 303//3 115//3
f 87//3 246//3 303//3
f 59//3 131//3 303//3
f 247//3 304//3 181//3
f 88//3 250//3 304//3
f 250//3 60//3 132//3
f 251//3 305//3 182//3
f 89//3 254//3 305//3
f 254//3 47//3 119//3
f 306//4 117//4 45//4
f 258//4 306//4 255//4
f 63//4 135//4 306//4
f 259//4 307//4 185//4
f 91//4 262//4 307//4
f 262//4 64//4 136//4
f 263//4 308//4 186//4
f 92//4 266//4 308//4
f 266//4 49//4 121//4
f 309//5 118//5 46//5
f 270//5 309//5 267//5
f 67//5 139//5 309//5
f 310//5 189//5 69//5
f 274//5 310//5 271//5
f 68//5 140//5 310//5
f 311//5 190//5 70//5
f 278//5 311//5 275//5
f 50//5 122//5 311//5
f 312//6 154//6 34//6
f 282//6 312//6 279//6
f 71//6 143//6 312//6
f 313//6 193//6 73//6
f 286//6 313//6 283//6
f 72//6 144//6 313//6
f 287//6 314//6 194//6
f 98//6 290//6 314//6
f 40//6 112//6 314//6
f 315//1 116//1 14//1
f 197//1 315//1 123//1
f 75//1 195//1 315//1
f 171//1 316//1 197//1
f 126//1 316//1 171//1
f 54//1 196//1 316//1
f 317//1 198//1 75//1
f 174//1 317//1 196//1
f 12//1 150//1 317//1
f 318//2 157//2 19//2
f 201//2 318//2 127//2
f 76//2 199//2 318//2
f 175//2 319//2 201//2
f 22//2 130//2 319//2
f 130//2 58//2 200//2
f 320//2 202//2 76//2
f 178//2 320//2 200//2
f 178//2 20//2 122//2
f 131//3 321//3 151//3
f 59//3 205//3 321//3
f 205//3 77//3 203//3
f 179//3 322//3 205//3
f 23//3 134//3 322//3
f 134//3 62//3 204//3
f 204//3 323//3 206//3
f 62//3 182//3 323//3
f 182//3 17//3 155//3
f 324//4 153//4 15//4
f 63//4 209//4 324//4
f 209//4 78//4 207//4
f 183//4 325//4 209//4
f 24//4 138//4 325//4
f 138//4 66//4 208//4
f 208//4 326//4 210//4
f 66//4 186//4 326//4
f 186//4 19//4 157//4
f 327//5 154//5 16//5
f 213//5 327//5 139//5
f 79//5 211//5 327//5
f 328//5 213//5 67//5
f 142//5 328//5 187//5
f 70//5 212//5 328//5
f 329//5 214//5 79//5
f 190//5 329//5 212//5
f 20//5 158//5 329//5
f 330//6 118//6 16//6
f 217//6 330//6 143//6
f 80//6 215//6 330//6
f 331//6 217//6 71//6
f 146//6 331//6 191//6
f 146//6 74//6 216//6
f 332//6 218//6 80//6
f 74//6 194//6 332//6
f 10//6 148//6 332//6
f 333//1 104//1 4//1
f 28//1 221//1 333//1
f 81//1 219//1 333//1
f 334//1 221//1 28//1
f 125//1 334//1 148//1
f 53//1 220//1 334//1
f 335//1 222//1 81//1
f 173//1 335//1 220//1
f 21//1 171//1 335//1
f 336//1 125//1 10//1
f 40//1 225//1 336//1
f 82//1 223//1 336//1
f 337//1 225//1 40//1
f 159//1 337//1 160//1
f 39//1 224//1 337//1
f 338//1 226//1 82//1
f 111//1 338//1 224//1
f 9//1 172//1 338//1
f 339//1 126//1 21//1
f 229//1 339//1 124//1
f 83//1 227//1 339//1
f 340//1 229//1 52//1
f 147//1 340//1 172//1
f 27//1 228//1 340//1
f 341//1 230//1 83//1
f 99//1 341//1 228//1
f 2//1 162//1 341//1
f 107//2 342//2 169//2
f 233//2 342//2 107//2
f 84//2 231//2 342//2
f 343//2 233//2 35//2
f 17//2 129//2 343//2
f 57//2 232//2 343//2
f 344//2 234//2 84//2
f 177//2 344//2 232//2
f 22//2 175//2 344//2
f 119//2 345//2 129//2
f 47//2 237//2 345//2
f 237//2 85//2 235//2
f 167//2 346//2 237//2
f 5//2 168//2 346//2
f 48//2 236//2 346//2
f 236//2 347//2 238//2
f 48//2 120//2 347//2
f 120//2 18//2 176//2
f 128//2 348//2 130//2
f 56//2 241//2 348//2
f 241//2 86//2 239//2
f 349//2 241//2 56//2
f 156//2 349//2 176//2
f 36//2 240//2 349//2
f 350//2 242//2 86//2
f 108//2 350//2 240//2
f 8//2 110//2 350//2
f 351//3 163//3 2//3
f 27//3 245//3 351//3
f 245//3 87//3 243//3
f 147//3 352//3 245//3
f 9//3 133//3 352//3
f 133//3 61//3 244//3
f 244//3 353//3 246//3
f 61//3 181//3 353//3
f 181//3 23//3 179//3
f 111//3 354//3 133//3
f 39//3 249//3 354//3
f 249//3 88//3 247//3
f 159//3 355//3 249//3
f 1//3 161//3 355//3
f 41//3 248//3 355//3
f 248//3 356//3 250//3
f 41//3 113//3 356//3
f 113//3 11//3 180//3
f 132//3 357//3 134//3
f 60//3 253//3 357//3
f 253//3 89//3 251//3
f 180//3 358//3 253//3
f 11//3 149//3 358//3
f 149//3 29//3 252//3
f 252//3 359//3 254//3
f 29//3 101//3 359//3
f 101//3 5//3 167//3
f 102//4 360//4 165//4
f 30//4 257//4 360//4
f 257//4 90//4 255//4
f 361//4 257//4 30//4
f 12//4 137//4 361//4
f 137//4 65//4 256//4
f 362//4 258//4 90//4
f 185//4 362//4 256//4
f 185//4 24//4 183//4
f 114//4 363//4 137//4
f 42//4 261//4 363//4
f 261//4 91//4 259//4
f 162//4 364//4 261//4
f 2//4 163//4 364//4
f 163//4 43//4 260//4
f 260//4 365//4 262//4
f 43//4 115//4 365//4
f 115//4 13//4 184//4
f 136//4 366//4 138//4
f 64//4 265//4 366//4
f 265//4 92//4 263//4
f 184//4 367//4 265//4
f 13//4 151//4 367//4
f 151//4 31//4 264//4
f 264//4 368//4 266//4
f 31//4 103//4 368//4
f 103//4 6//4 169//4
f 369//5 166//5 4//5
f 269//5 369//5 104//5
f 93//5 267//5 369//5
f 370//5 269//5 32//5
f 141//5 370//5 152//5
f 69//5 268//5 370//5
f 371//5 270//5 93//5
f 189//5 371//5 268//5
f 25//5 187//5 371//5
f 372//5 141//5 14//5
f 273//5 372//5 116//5
f 94//5 271//5 372//5
f 373//5 273//5 44//5
f 3//5 165//5 373//5
f 45//5 272//5 373//5
f 374//5 274//5 94//5
f 117//5 374//5 272//5
f 15//5 188//5 374//5
f 375//5 142//5 25//5
f 277//5 375//5 140//5
f 95//5 275//5 375//5
f 376//5 277//5 68//5
f 153//5 376//5 188//5
f 153//5 33//5 276//5
f 276//5 377//5 278//5
f 33//5 105//5 377//5
f 7//5 170//5 377//5
f 378//6 106//6 8//6
f 281//6 378//6 108//6
f 96//6 279//6 378//6
f 379//6 281//6 36//6
f 145//6 379//6 156//6
f 73//6 280//6 379//6
f 380//6 282//6 96//6
f 193//6 380//6 280//6
f 26//6 191//6 380//6
f 381//6 145//6 18//6
f 285//6 381//6 120//6
f 285//6 97//6 283//6
f 382//6 285//6 48//6
f 101//6 382//6 168//6
f 101//6 29//6 284//6
f 284//6 383//6 286//6
f 29//6 149//6 383//6
f 11//6 192//6 383//6
f 384//6 146//6 26//6
f 289//6 384//6 144//6
f 289//6 98//6 287//6
f 385//6 289//6 72//6
f 113//6 385//6 192//6
f 113//6 41//6 288//6
f 288//6 386//6 290//6
f 41//6 161//6 386//6
f 1//6 160//6 386//6
f 164//1 291//1 3//1
f 292//2 170//2 109//2
f 103//3 293//3 6//3
f 105//4 294//4 7//4
f 295//5 110//5 106//5
f 296//6 100//6 166//6
f 297//1 123//1 152//1
f 298//1 124//1 173//1
f 299//1 114//1 174//1
f 300//2 127//2 121//2
f 177//2 301//2 22//2
f 302//2 158//2 178//2
f 303//3 131//3 115//3
f 181//3 304//3 23//3
f 182//3 305//3 17//3
f 306//4 135//4 117//4
f 185//4 307//4 24//4
f 186//4 308//4 19//4
f 309//5 139//5 118//5
f 310//5 140//5 189//5
f 311//5 122//5 190//5
f 312//6 143//6 154//6
f 313//6 144//6 193//6
f 314//6 112//6 194//6
f 315//1 195//1 116//1
f 316//1 196//1 197//1
f 198//1 317//1 30//1
f 318//2 199//2 157//2
f 319//2 200//2 201//2
f 320//2 122//2 202//2
f 151//3 321//3 31//3
f 205//3 322//3 77//3
f 206//3 323//3 35//3
f 153//4 324//4 33//4
f 209//4 325//4 78//4
f 210//4 326//4 37//4
f 327//5 211//5 154//5
f 328//5 212//5 213//5
f 329//5 158//5 214//5
f 330//6 215//6 118//6
f 331//6 216//6 217//6
f 332//6 148//6 218//6
f 333//1 219//1 104//1
f 334//1 220//1 221//1
f 335//1 171//1 222//1
f 336//1 223//1 125//1
f 225//1 337//1 82//1
f 338//1 172//1 226//1
f 339//1 227//1 126//1
f 340//1 228//1 229//1
f 341//1 162//1 230//1
f 342//2 231//2 169//2
f 343//2 232//2 233//2
f 234//2 344//2 55//2
f 345//2 235//2 129//2
f 346//2 236//2 237//2
f 238//2 347//2 56//2
f 348//2 239//2 130//2
f 241//2 349//2 86//2
f 350//2 110//2 242//2
f 163//3 351//3 43//3
f 245//3 352//3 87//3
f 246//3 353//3 59//3
f 133//3 354//3 61//3
f 249//3 355//3 88//3
f 250//3 356//3 60//3
f 134//3 357//3 62//3
f 253//3 358//3 89//3
f 254//3 359//3 47//3
f 360//4 255//4 165//4
f 257//4 361//4 90//4
f 258//4 362//4 63//4
f 137//4 363//4 65//4
f 261//4 364//4 91//4
f 262//4 365//4 64//4
f 138//4 366//4 66//4
f 265//4 367//4 92//4
f 266//4 368//4 49//4
f 369//5 267//5 166//5
f 370//5 268//5 269//5
f 371//5 187//5 270//5
f 372//5 271//5 141//5
f 373//5 272//5 273//5
f 374//5 188//5 274//5
f 375//5 275//5 142//5
f 376//5 276//5 277//5
f 377//5 170//5 278//5
f 378//6 279//6 106//6
f 379//6 280//6 281//6
f 380//6 191//6 282//6
f 381//6 283//6 145//6
f 285//6 382//6 97//6
f 383//6 192//6 286//6
f 146//6 384//6 74//6
f 289//6 385//6 98//6
f 386//6 160//6 290//6
f 195//1 291//1 44//1
f 75//1 198//1 195//1
f 291//1 198//1 102//1
f 199//2 292//2 37//2
f 76//2 202//2 199//2
f 202//2 50//2 292//2
f 203//3 293//3 31//3
f 77//3 206//3 203//3
f 293//3 206//3 107//3
f 207//4 294//4 33//4
f 207//4 78//4 294//4
f 294//4 210//4 109//4
f 211//5 295//5 34//5
f 79//5 214//5 211//5
f 214//5 38//5 295//5
f 215//6 296//6 46//6
f 80//6 218//6 215//6
f 218//6 28//6 296//6
f 32//1 219//1 152//1
f 219//1 81//1 297//1
f 222//1 51//1 297//1
f 223//1 298//1 53//1
f 82//1 226//1 223//1
f 226//1 52//1 298//1
f 227//1 299//1 54//1
f 83//1 230//1 227//1
f 230//1 42//1 299//1
f 231//2 300//2 49//2
f 84//2 234//2 231//2
f 234//2 55//2 300//2
f 235//2 301//2 57//2
f 235//2 85//2 301//2
f 301//2 238//2 128//2
f 239//2 302//2 58//2
f 86//2 242//2 239//2
f 242//2 38//2 302//2
f 43//3 243//3 115//3
f 243//3 87//3 303//3
f 246//3 59//3 303//3
f 61//3 247//3 181//3
f 247//3 88//3 304//3
f 304//3 250//3 132//3
f 62//3 251//3 182//3
f 251//3 89//3 305//3
f 305//3 254//3 119//3
f 255//4 306//4 45//4
f 90//4 258//4 255//4
f 258//4 63//4 306//4
f 65//4 259//4 185//4
f 259//4 91//4 307//4
f 307//4 262//4 136//4
f 66//4 263//4 186//4
f 263//4 92//4 308//4
f 308//4 266//4 121//4
f 267//5 309//5 46//5
f 93//5 270//5 267//5
f 270//5 67//5 309//5
f 271//5 310//5 69//5
f 94//5 274//5 271//5
f 274//5 68//5 310//5
f 275//5 311//5 70//5
f 95//5 278//5 275//5
f 278//5 50//5 311//5
f 279//6 312//6 34//6
f 96//6 282//6 279//6
f 282//6 71//6 312//6
f 283//6 313//6 73//6
f 97//6 286//6 283//6
f 286//6 72//6 313//6
f 74//6 287//6 194//6
f 287//6 98//6 314//6
f 290//6 40//6 314//6
f 123//1 315//1 14//1
f 51//1 197//1 123//1
f 197//1 75//1 315//1
f 51//1 171//1 197//1
f 21//1 126//1 171//1
f 126//1 54//1 316//1
f 196//1 317//1 75//1
f 54//1 174//1 196//1
f 174//1 12//1 317//1
f 127//2 318//2 19//2
f 55//2 201//2 127//2
f 201//2 76//2 318//2
f 55//2 175//2 201//2
f 175//2 22//2 319//2
f 319//2 130//2 200//2
f 200//2 320//2 76//2
f 58//2 178//2 200//2
f 320//2 178//2 122//2
f 13//3 131//3 151//3
f 131//3 59//3 321//3
f 321//3 205//3 203//3
f 59//3 179//3 205//3
f 179//3 23//3 322//3
f 322//3 134//3 204//3
f 77//3 204//3 206//3
f 204//3 62//3 323//3
f 323//3 182//3 155//3
f 135//4 324//4 15//4
f 135//4 63//4 324//4
f 324//4 209//4 207//4
f 63//4 183//4 209//4
f 183//4 24//4 325//4
f 325//4 138//4 208//4
f 78//4 208//4 210//4
f 208//4 66//4 326//4
f 326//4 186//4 157//4
f 139//5 327//5 16//5
f 67//5 213//5 139//5
f 213//5 79//5 327//5
f 187//5 328//5 67//5
f 25//5 142//5 187//5
f 142//5 70//5 328//5
f 212//5 329//5 79//5
f 70//5 190//5 212//5
f 190//5 20//5 329//5
f 143//6 330//6 16//6
f 71//6 217//6 143//6
f 217//6 80//6 330//6
f 191//6 331//6 71//6
f 26//6 146//6 191//6
f 331//6 146//6 216//6
f 216//6 332//6 80//6
f 216//6 74//6 332//6
f 194//6 10//6 332//6
f 100//1 333//1 4//1
f 100//1 28//1 333//1
f 221//1 81//1 333//1
f 148//1 334//1 28//1
f 10//1 125//1 148//1
f 125//1 53//1 334//1
f 220//1 335//1 81//1
f 53//1 173//1 220//1
f 173//1 21//1 335//1
f 112//1 336//1 10//1
f 112//1 40//1 336//1
f 225//1 82//1 336//1
f 160//1 337//1 40//1
f 1//1 159//1 160//1
f 159//1 39//1 337//1
f 224//1 338//1 82//1
f 39//1 111//1 224//1
f 111//1 9//1 338//1
f 124//1 339//1 21//1
f 52//1 229//1 124//1
f 229//1 83//1 339//1
f 172//1 340//1 52//1
f 9//1 147//1 172//1
f 147//1 27//1 340//1
f 228//1 341//1 83//1
f 27//1 99//1 228//1
f 99//1 2//1 341//1
f 6//2 107//2 169//2
f 35//2 233//2 107//2
f 233//2 84//2 342//2
f 155//2 343//2 35//2
f 155//2 17//2 343//2
f 129//2 57//2 343//2
f 232//2 344//2 84//2
f 57//2 177//2 232//2
f 177//2 22//2 344//2
f 17//2 119//2 129//2
f 119//2 47//2 345//2
f 345//2 237//2 235//2
f 47//2 167//2 237//2
f 167//2 5//2 346//2
f 168//2 48//2 346//2
f 85//2 236//2 238//2
f 236//2 48//2 347//2
f 347//2 120//2 176//2
f 22//2 128//2 130//2
f 128//2 56//2 348//2
f 348//2 241//2 239//2
f 176//2 349//2 56//2
f 18//2 156//2 176//2
f 156//2 36//2 349//2
f 240//2 350//2 86//2
f 36//2 108//2 240//2
f 108//2 8//2 350//2
f 99//3 351//3 2//3
f 99//3 27//3 351//3
f 351//3 245//3 243//3
f 27//3 147//3 245//3
f 147//3 9//3 352//3
f 352//3 133//3 244//3
f 87//3 244//3 246//3
f 244//3 61//3 353//3
f 353//3 181//3 179//3
f 9//3 111//3 133//3
f 111//3 39//3 354//3
f 354//3 249//3 247//3
f 39//3 159//3 249//3
f 159//3 1//3 355//3
f 161//3 41//3 355//3
f 88//3 248//3 250//3
f 248//3 41//3 356//3
f 356//3 113//3 180//3
f 23//3 132//3 134//3
f 132//3 60//3 357//3
f 357//3 253//3 251//3
f 60//3 180//3 253//3
f 180//3 11//3 358//3
f 358//3 149//3 252//3
f 89//3 252//3 254//3
f 252//3 29//3 359//3
f 359//3 101//3 167//3
f 3//4 102//4 165//4
f 102//4 30//4 360//4
f 360//4 257//4 255//4
f 150//4 361//4 30//4
f 150//4 12//4 361//4
f 361//4 137//4 256//4
f 256//4 362//4 90//4
f 65//4 185//4 256//4
f 362//4 185//4 183//4
f 12//4 114//4 137//4
f 114//4 42//4 363//4
f 363//4 261//4 259//4
f 42//4 162//4 261//4
f 162//4 2//4 364//4
f 364//4 163//4 260//4
f 91//4 260//4 262//4
f 260//4 43//4 365//4
f 365//4 115//4 184//4
f 24//4 136//4 138//4
f 136//4 64//4 366//4
f 366//4 265//4 263//4
f 64//4 184//4 265//4
f 184//4 13//4 367//4
f 367//4 151//4 264//4
f 92//4 264//4 266//4
f 264//4 31//4 368//4
f 368//4 103//4 169//4
f 104//5 369//5 4//5
f 32//5 269//5 104//5
f 269//5 93//5 369//5
f 152//5 370//5 32//5
f 14//5 141//5 152//5
f 141//5 69//5 370//5
f 268//5 371//5 93//5
f 69//5 189//5 268//5
f 189//5 25//5 371//5
f 116//5 372//5 14//5
f 44//5 273//5 116//5
f 273//5 94//5 372//5
f 164//5 373//5 44//5
f 164//5 3//5 373//5
f 165//5 45//5 373//5
f 272//5 374//5 94//5
f 45//5 117//5 272//5
f 117//5 15//5 374//5
f 140//5 375//5 25//5
f 68//5 277//5 140//5
f 277//5 95//5 375//5
f 188//5 376//5 68//5
f 15//5 153//5 188//5
f 376//5 153//5 276//5
f 95//5 276//5 278//5
f 276//5 33//5 377//5
f 105//5 7//5 377//5
f 108//6 378//6 8//6
f 36//6 281//6 108//6
f 281//6 96//6 378//6
f 156//6 379//6 36//6
f 18//6 145//6 156//6
f 145//6 73//6 379//6
f 280//6 380//6 96//6
f 73//6 193//6 280//6
f 193//6 26//6 380//6
f 120//6 381//6 18//6
f 48//6 285//6 120//6
f 381//6 285//6 283//6
f 168//6 382//6 48//6
f 5//6 101//6 168//6
f 382//6 101//6 284//6
f 97//6 284//6 286//6
f 284//6 29//6 383//6
f 149//6 11//6 383//6
f 144//6 384//6 26//6
f 72//6 289//6 144//6
f 384//6 289//6 287//6
f 192//6 385//6 72//6
f 11//6 113//6 192//6
f 385//6 113//6 288//6
f 98//6 288//6 290//6
f 288//6 41//6 386//6
f 161//6 1//6 386//6
